﻿public int Salvar(exDTO mus)
        {
            string script =
            @"INSERT INTO tb_musica 
            (
	            
            )
            VALUES
            (
	            @,
	            
            )";

            List<MySqlParameter> parms = new List<MySqlParameter>();
            parms.Add(new MySqlParameter("", mus.));
            parms.Add(new MySqlParameter("", mus.));
            parms.Add(new MySqlParameter("", mus.));
            parms.Add(new MySqlParameter("", mus.));
            parms.Add(new MySqlParameter("", mus.));
            parms.Add(new MySqlParameter("", mus.));
            parms.Add(new MySqlParameter("", mus.));

            Database db = new Database();
            int pk = db.ExecuteInsertScriptWithPk(script, parms);
            return pk;